<svg width="25" height="25" viewBox="0 0 25 25" fill="none" xmlns="http://www.w3.org/2000/svg">
<rect x="0.5" y="0.5" width="24" height="24" rx="1.5" fill="white" stroke="#165581"/>
<path d="M12.5 17.5H18.125" stroke="#165581" stroke-linecap="round" stroke-linejoin="round"/>
<path d="M15.3125 7.18715C15.5611 6.93851 15.8984 6.79883 16.25 6.79883C16.4241 6.79883 16.5965 6.83312 16.7574 6.89975C16.9182 6.96638 17.0644 7.06404 17.1875 7.18715C17.3106 7.31027 17.4083 7.45643 17.4749 7.61728C17.5415 7.77814 17.5758 7.95054 17.5758 8.12465C17.5758 8.29876 17.5415 8.47117 17.4749 8.63202C17.4083 8.79288 17.3106 8.93904 17.1875 9.06215L9.375 16.8747L6.875 17.4997L7.5 14.9997L15.3125 7.18715Z" stroke="#165581" stroke-linecap="round" stroke-linejoin="round"/>
</svg>
